Entrega 1
…
      13 de septiembre de 2023

Introducción

En las siguientes secciones, vamos a hacer una análisis exploratorio sobre el dataset penguins, proveniente de la librería "palmerpenguins".

Sobre los datos

El dataset contienen los datos de 344 pingüinos. Hay 3 especies diferentes de pingüinos en este, conseguidos de 3 islas en el Archipiélago Palmer, ubicado en la Antártida.

library("palmerpenguins")
print(penguins, width = 50)

# A tibble: 344 × 8
   species island    bill_length_mm bill_depth_mm
   <fct>   <fct>              <dbl>         <dbl>
 1 Adelie  Torgersen           39.1          18.7
 2 Adelie  Torgersen           39.5          17.4
 3 Adelie  Torgersen           40.3          18  
 4 Adelie  Torgersen           NA            NA  
 5 Adelie  Torgersen           36.7          19.3
 6 Adelie  Torgersen           39.3          20.6
 7 Adelie  Torgersen           38.9          17.8
 8 Adelie  Torgersen           39.2          19.6
 9 Adelie  Torgersen           34.1          18.1
10 Adelie  Torgersen           42            20.2
# ℹ 334 more rows
# ℹ 4 more variables: flipper_length_mm <int>,
#   body_mass_g <int>, sex <fct>, year <int>
…
